{
  "reportName" : "Allure Report",
  "testRuns" : [ ],
  "statistic" : {
    "failed" : 0,
    "broken" : 0,
    "skipped" : 1,
    "passed" : 5,
    "unknown" : 0,
    "total" : 6
  },
  "time" : {
    "start" : 1586116159858,
    "stop" : 1586116165471,
    "duration" : 5613,
    "minDuration" : 275,
    "maxDuration" : 1592,
    "sumDuration" : 5224
  }
}